Introduction to Tidyverse
…
## The following objects are masked from 'package:stats':
## 
##     filter, lag

## The following objects are masked from 'package:base':
## 
##     intersect, setdiff, setequal, union

subsetted_data <- select(flights_data, year, month, day, carrier)

subsetted_data

## # A tibble: 336,776 x 4
##     year month   day carrier
##    <int> <int> <int> <chr>  
##  1  2013     1     1 UA     
##  2  2013     1     1 UA     
##  3  2013     1     1 AA     
##  4  2013     1     1 B6     
##  5  2013     1     1 DL     
##  6  2013     1     1 UA     
##  7  2013     1     1 B6     
##  8  2013     1     1 EV     
##  9  2013     1     1 B6     
## 10  2013     1     1 AA     
## # ... with 336,766 more rows

Passing a sequence of column names

We can also pass in a sequence of columns instead of explicitly mentioning all the column names year:day would select year, month, day

    col_one : col_five  ------------> col_one, col_two, col_three, col_four, col_five

subsetted_data <- select(flights_data, year:day, carrier)

subsetted_data

## # A tibble: 336,776 x 4
##     year month   day carrier
##    <int> <int> <int> <chr>  
##  1  2013     1     1 UA     
##  2  2013     1     1 UA     
##  3  2013     1     1 AA     
##  4  2013     1     1 B6     
##  5  2013     1     1 DL     
##  6  2013     1     1 UA     
##  7  2013     1     1 B6     
##  8  2013     1     1 EV     
##  9  2013     1     1 B6     
## 10  2013     1     1 AA     
## # ... with 336,766 more rows

Passing column names that are not needed using -

You can also subset columns using - operator, it would return all columns excluding the mentioned columns

subsetted_data <- select(flights_data, -(dep_time : time_hour))

subsetted_data

## # A tibble: 336,776 x 3
##     year month   day
##    <int> <int> <int>
##  1  2013     1     1
##  2  2013     1     1
##  3  2013     1     1
##  4  2013     1     1
##  5  2013     1     1
##  6  2013     1     1
##  7  2013     1     1
##  8  2013     1     1
##  9  2013     1     1
## 10  2013     1     1
## # ... with 336,766 more rows
…
Using the arrange() function

The arrange() function takes in a bunch of column names and sorts them in the ascending order by default

Each column name passed into the arrange() function after the first column name is used to break ties

If we want the order of the rows in a dataframe to be in a descending order based on a paricular columns values, we wrap that column inside the desc() function

arrange(flights, year, month, desc(day))

## # A tibble: 336,776 x 19
##     year month   day dep_time sched_dep_time dep_delay arr_time
##    <int> <int> <int>    <int>          <int>     <dbl>    <int>
##  1  2013     1    31        1           2100       181      124
##  2  2013     1    31        4           2359         5      455
##  3  2013     1    31        7           2359         8      453
##  4  2013     1    31       12           2250        82      132
##  5  2013     1    31       26           2154       152      328
##  6  2013     1    31       34           2159       155      135
##  7  2013     1    31       37           2249       108      132
##  8  2013     1    31       54           2250       124      152
##  9  2013     1    31      453            500        -7      651
## 10  2013     1    31      522            525        -3      820
## # ... with 336,766 more rows, and 12 more variables: sched_arr_time <int>,
## #   arr_delay <dbl>, carrier <chr>, flight <int>, tailnum <chr>,
## #   origin <chr>, dest <chr>, air_time <dbl>, distance <dbl>, hour <dbl>,
## #   minute <dbl>, time_hour <dttm>
Feature Engineering using the mutate() function

As with all the other functions from the dplyr package, the first argument is the data frame

The other arguments are the columns we want to create, should follow the structure new_col = col1 + col2

Let us now create new columns time_gain, air_time_hours and time_gain_per_hour using the pre existing columns

mutate(flights,
  time_gain = arr_delay - dep_delay,
  air_time_hours = air_time / 60,
  time_gain_per_hour = time_gain / air_time_hours
)

## # A tibble: 336,776 x 22
##     year month   day dep_time sched_dep_time dep_delay arr_time
##    <int> <int> <int>    <int>          <int>     <dbl>    <int>
##  1  2013     1     1      517            515         2      830
##  2  2013     1     1      533            529         4      850
##  3  2013     1     1      542            540         2      923
##  4  2013     1     1      544            545        -1     1004
##  5  2013     1     1      554            600        -6      812
##  6  2013     1     1      554            558        -4      740
##  7  2013     1     1      555            600        -5      913
##  8  2013     1     1      557            600        -3      709
##  9  2013     1     1      557            600        -3      838
## 10  2013     1     1      558            600        -2      753
## # ... with 336,766 more rows, and 15 more variables: sched_arr_time <int>,
## #   arr_delay <dbl>, carrier <chr>, flight <int>, tailnum <chr>,
## #   origin <chr>, dest <chr>, air_time <dbl>, distance <dbl>, hour <dbl>,
## #   minute <dbl>, time_hour <dttm>, time_gain <dbl>, air_time_hours <dbl>,
## #   time_gain_per_hour <dbl>
…
The summarise() function helps us compute an aggregate statistic given all the grouped rows

Using the group_by() and and summarise() functions lets compute the average departure delay per month

Understanding the group_by() function

We pass in the data frame and the columns we want to group by to the group_by() function

Only performing the group_by() function does not change anything in the dataset

data_by_month = group_by(flights_data, month)

data_by_month

## # A tibble: 336,776 x 19
## # Groups:   month [12]
##     year month   day dep_time sched_dep_time dep_delay arr_time
##    <int> <int> <int>    <int>          <int>     <dbl>    <int>
##  1  2013     1     1      517            515         2      830
##  2  2013     1     1      533            529         4      850
##  3  2013     1     1      542            540         2      923
##  4  2013     1     1      544            545        -1     1004
##  5  2013     1     1      554            600        -6      812
##  6  2013     1     1      554            558        -4      740
##  7  2013     1     1      555            600        -5      913
##  8  2013     1     1      557            600        -3      709
##  9  2013     1     1      557            600        -3      838
## 10  2013     1     1      558            600        -2      753
## # ... with 336,766 more rows, and 12 more variables: sched_arr_time <int>,
## #   arr_delay <dbl>, carrier <chr>, flight <int>, tailnum <chr>,
## #   origin <chr>, dest <chr>, air_time <dbl>, distance <dbl>, hour <dbl>,
## #   minute <dbl>, time_hour <dttm>
…
Example of data munging using the %>% operator

Below we look at an example putting all the elements together

flights %>% 
  group_by(dest) %>% 
  summarise(count = n(), dist = mean(distance, na.rm = TRUE),
    delay = mean(arr_delay, na.rm = TRUE)) %>% 
  filter(count > 20)

## # A tibble: 97 x 4
##    dest  count  dist delay
##    <chr> <int> <dbl> <dbl>
##  1 ABQ     254 1826   4.38
##  2 ACK     265  199   4.85
##  3 ALB     439  143  14.4 
##  4 ATL   17215  757. 11.3 
##  5 AUS    2439 1514.  6.02
##  6 AVL     275  584.  8.00
##  7 BDL     443  116   7.05
##  8 BGR     375  378   8.03
##  9 BHM     297  866. 16.9 
## 10 BNA    6333  758. 11.8 
## # ... with 87 more rows
…
