July7th-tidy
…
##   country     `1999` `2000`
##   <chr>        <int>  <int>
## 1 Afghanistan    745   2666
## 2 Brazil       37737  80488
## 3 China       212258 213766
## # A tibble: 6 x 3
##   country     year   cases
##   <chr>       <chr>  <int>
## 1 Afghanistan 1999     745
## 2 Brazil      1999   37737
## 3 China       1999  212258
## 4 Afghanistan 2000    2666
## 5 Brazil      2000   80488
## 6 China       2000  213766
## # A tibble: 336,776 x 4
##     year month   day carrier
##    <int> <int> <int> <chr>  
##  1  2013     1     1 UA     
##  2  2013     1     1 UA     
##  3  2013     1     1 AA     
##  4  2013     1     1 B6     
##  5  2013     1     1 DL     
##  6  2013     1     1 UA     
##  7  2013     1     1 B6     
##  8  2013     1     1 EV     
##  9  2013     1     1 B6     
## 10  2013     1     1 AA     
## # ... with 336,766 more rows
…
